00000000 .text
00000afb .rodata
00000b4c .data
00000b60 .bss
00000000 .comment
00000000 .debug_aranges
00000000 .debug_pubnames
00000000 .debug_info
00000000 .debug_abbrev
00000000 .debug_line
00000000 .debug_frame
00000000 .debug_str
00000000 .debug_loc
00000000 .debug_pubtypes
00000000 ls.c
00000b60 buf.922
00000000 ulib.c
00000354 stosb
00000000 printf.c
00000658 putc
00000680 printint
00000b4c digits.911
00000000 umalloc.c
00000b70 base
00000b78 freep
000009c3 morecore
00000379 strcpy
00000000 fmtname
00000734 printf
00000572 memmove
00000600 mknod
00000469 gets
00000638 getpid
00000a1b malloc
00000648 sleep
000005c8 pipe
000005d8 write
00000610 fstat
000005e8 kill
00000628 chdir
000005f0 exec
000005c0 wait
000005d0 read
00000608 unlink
000005b0 fork
00000640 sbrk
00000650 uptime
00000b60 __bss_start
00000412 memset
00000302 main
000003ac strcmp
00000630 dup
000004d8 stat
00000b60 _edata
00000b7c _end
00000618 link
000000ae ls
000005b8 exit
00000526 atoi
000003ed strlen
000005f8 open
00000436 strchr
00000620 mkdir
000005e0 close
000008ec free
